Log: 

Login date: 2/24/2023 11:03:31 AM
Login date: 2/24/2023 11:04:17 AM
Login date: 2/24/2023 11:04:30 AM
Login date: 2/27/2023 5:39:07 PM
Login date: 2/27/2023 5:39:22 PM
Login date: 2/27/2023 5:39:35 PM
Login date: 2/27/2023 5:39:46 PM
